; Engine configuration file.
; It's best edited using the editor UI and not directly,
; since the parameters that go here are not all obvious.
;
; Format:
;   [section] ; section goes between []
;   param=value ; assign values to parameters

config_version=4

_global_script_classes=[ {
"base": "Node",
"class": "ClassOne",
"language": "GDScript",
"path": "res://Class1.gd"
}, {
"base": "Node",
"class": "ClassTwo",
"language": "GDScript",
"path": "res://Class2.gd"
} ]
_global_script_class_icons={
"ClassOne": "",
"ClassTwo": ""
}

[application]

config/name="Private Test"
run/main_scene="res://Scene.tscn"
config/icon="res://icon.png"

[rendering]

quality/driver/driver_name="GLES2"
vram_compression/import_etc=true
vram_compression/import_etc2=false
environment/default_environment="res://default_env.tres"
